{
  "total": 13,
  "per_page": 10,
  "current_page": 1,
  "last_page": 2,
  "next_page_url": "http:\\/\\/192.168.5.67\\/api\\/tags?page=2",
  "prev_page_url": null,
  "from": 1,
  "to": 10,
  "data": [
    {
      "id": 12,
      "name": "Cracked",
      "description": "",
      "created_at": "2016-08-03 12:41:23",
      "updated_at": "2016-08-03 12:41:23"
    },
    {
      "id": 13,
      "name": "Concrete",
      "description": "",
      "created_at": "2016-08-03 12:41:23",
      "updated_at": "2016-08-03 12:41:23"
    },
    {
      "id": 11,
      "name": "Rounded",
      "description": "",
      "created_at": "2016-08-03 12:40:04",
      "updated_at": "2016-08-03 12:40:04"
    },
    {
      "id": 10,
      "name": "Large",
      "description": "",
      "created_at": "2016-08-03 12:38:45",
      "updated_at": "2016-08-03 12:38:45"
    },
    {
      "id": 9,
      "name": "Brick",
      "description": "",
      "created_at": "2016-08-03 12:06:40",
      "updated_at": "2016-08-03 12:06:40"
    },
    {
      "id": 7,
      "name": "Old",
      "description": "",
      "created_at": "2016-08-03 12:01:22",
      "updated_at": "2016-08-03 12:01:22"
    },
    {
      "id": 8,
      "name": "Wooden",
      "description": "",
      "created_at": "2016-08-03 12:01:22",
      "updated_at": "2016-08-03 12:01:22"
    },
    {
      "id": 6,
      "name": "Big",
      "description": "",
      "created_at": "2016-08-03 11:37:00",
      "updated_at": "2016-08-03 11:37:00"
    },
    {
      "id": 5,
      "name": "new tag",
      "description": "",
      "created_at": "2016-08-01 10:59:50",
      "updated_at": "2016-08-01 10:59:50"
    },
    {
      "id": 3,
      "name": "1",
      "description": "",
      "created_at": "2016-06-30 06:33:01",
      "updated_at": "2016-06-30 06:33:01"
    }
  ]
}